{
  "data": [
    {
      "id": 6,
      "name": "Johathan Fay DDS",
      "email": "esther67@example.org",
      "email_verified_at": "2019-04-04 02:18:29",
      "isAdmin": false,
      "groupable_type": "App\\Teams",
      "groupable_id": 2,
      "created_at": "2019-04-04 02:18:29",
      "updated_at": "2019-04-04 02:18:29"
    },
    {
      "id": 7,
      "name": "Shania Schuster",
      "email": "justus83@example.net",
      "email_verified_at": "2019-04-04 02:18:29",
      "isAdmin": false,
      "groupable_type": "App\\Teams",
      "groupable_id": 2,
      "created_at": "2019-04-04 02:18:29",
      "updated_at": "2019-04-04 02:18:29"
    },
    {
      "id": 8,
      "name": "Gerry Greenfelder PhD",
      "email": "jskiles@example.org",
      "email_verified_at": "2019-04-04 02:18:29",
      "isAdmin": false,
      "groupable_type": "App\\Teams",
      "groupable_id": 2,
      "created_at": "2019-04-04 02:18:29",
      "updated_at": "2019-04-04 02:18:29"
    },
    {
      "id": 9,
      "name": "Glennie Denesik",
      "email": "tremblay.madison@example.org",
      "email_verified_at": "2019-04-04 02:18:29",
      "isAdmin": false,
      "groupable_type": "App\\Teams",
      "groupable_id": 2,
      "created_at": "2019-04-04 02:18:30",
      "updated_at": "2019-04-04 02:18:30"
    },
    {
      "id": 10,
      "name": "Alden Runte",
      "email": "balistreri.lesley@example.net",
      "email_verified_at": "2019-04-04 02:18:29",
      "isAdmin": false,
      "groupable_type": "App\\Teams",
      "groupable_id": 2,
      "created_at": "2019-04-04 02:18:30",
      "updated_at": "2019-04-04 02:18:30"
    }
  ],
  "links": {
    "self": "link-value",
    "first": "http:\/\/127.0.0.1:8000\/user?page=1",
    "last": "http:\/\/127.0.0.1:8000\/user?page=2",
    "prev": "http:\/\/127.0.0.1:8000\/user?page=1",
    "next": null
  },
  "meta": {
    "current_page": 2,
    "from": 6,
    "last_page": 2,
    "path": "http:\/\/127.0.0.1:8000\/user",
    "per_page": 5,
    "to": 10,
    "total": 10
  }
}